…
pi_names = html_text(pi_names_html) 

pi_names[1:5]

## [1] "Abnet, Christian C., Ph.D., M.P.H."
## [2] "Acharya, Jairaj K., MBBS, Ph.D."   
## [3] "Adelstein, Robert S., M.D."        
## [4] "Adhya, Sankar, Ph.D."              
## [5] "Afraz, Arash, Ph.D., M.D."

We now have the PI names as a character vector along with their degrees. To keep things simple, I’m going to extract just their first and last names and ignore the other information.

## # A tibble: 1,039 x 4
##    fullname                           last_name first_name middle_name
##    <chr>                              <chr>     <chr>      <chr>      
##  1 Abnet, Christian C., Ph.D., M.P.H. Abnet     Christian  C.         
##  2 Acharya, Jairaj K., MBBS, Ph.D.    Acharya   Jairaj     K.         
##  3 Adelstein, Robert S., M.D.         Adelstein Robert     S.         
##  4 Adhya, Sankar, Ph.D.               Adhya     Sankar     <NA>       
##  5 Afraz, Arash, Ph.D., M.D.          Afraz     Arash      <NA>       
##  6 Agarwal, Piyush K., M.D.           Agarwal   Piyush     K.         
##  7 Aguilera, Greti, M.D.              Aguilera  Greti      <NA>       
##  8 Aladjem, Mirit I., Ph.D.           Aladjem   Mirit      I.         
##  9 Albanes, Demetrius, M.D.           Albanes   Demetrius  <NA>       
## 10 Albert, Paul S., Ph.D.             Albert    Paul       S.         
## # ... with 1,029 more rows
…
replace accented characters with plain ones (e.g. é to e)

replace non-letters with spaces (e.g. O’Neill to oneill)

3 OPM data

Now that we have the names of the IRP PIs, let’s see if we can identify them in this awesome dataset that Buzzfeed put online for public use.

The dataset contains hundreds of millions of rows and stretches all the way back to 1973. It provides salary, title, and demographic details about millions of U.S. government employees, as well as their migrations into, out of, and through the federal bureaucracy. In many cases, the data also contains employees’ names.

Thank you, Buzzfeed!

I have the data stored on an external hard drive, so for this part of the code you’ll have to change the file path to wherever you’ve downloaded the data.

## # A tibble: 1,355,327 x 19
##    last_name  first_name  file_date agency    subagency   state  age_range
##    <chr>      <chr>           <int> <chr>     <chr>       <chr>  <chr>    
##  1 NAME WITH… NAME WITHH…    201703 TR-DEPAR… TR93-INTER… REDAC… 60-64    
##  2 NAME WITH… NAME WITHH…    201703 TR-DEPAR… TR93-INTER… REDAC… 60-64    
##  3 NAME WITH… NAME WITHH…    201703 TR-DEPAR… TR93-INTER… REDAC… 60-64    
##  4 NAME WITH… NAME WITHH…    201703 TR-DEPAR… TR93-INTER… REDAC… 60-64    
##  5 NAME WITH… NAME WITHH…    201703 TR-DEPAR… TR93-INTER… 11-DI… 35-39    
##  6 HESS       KEVIN          201703 VA-DEPAR… VALA-VETER… 41-OR… 50-54    
##  7 KELLER     STEVEN         201703 VA-DEPAR… VALA-VETER… 47-TE… 50-54    
##  8 SAPP       JAMES          201703 HE-DEPAR… HE35-AGENC… 13-GE… 50-54    
##  9 NAME WITH… NAME WITHH…    201703 HS-DEPAR… HSBB-IMMIG… REDAC… 50-54    
## 10 NAME WITH… NAME WITHH…    201703 HS-DEPAR… HSBB-IMMIG… REDAC… 50-54    
## # ... with 1,355,317 more rows, and 12 more variables: ysd_range <chr>,
## #   education_level <chr>, pay_plan <chr>, grade <chr>, los_level <chr>,
## #   occupation <chr>, patco <chr>, adjusted_basic_pay <dbl>,
## #   supervisory_status <chr>, toa <chr>, work_schedule <chr>,
## #   nsftp_indicator <chr>
…
